{
          "title" : "Connected Components Filter",
           "kind" : "process",
           "type" : "itkConnectedComponentsFilter",
           "tags" : ["filter","connected","components"],
    "description" : "<h3>Connected Components Filter Node</h3>
                     <p>Apply the connected component filter provided by ITK</p>",
         "inputs" : ["image"],
         "outputs": ["image"]
}
