{
          "title" : "Gaussian Filter",
           "kind" : "process",
           "type" : "itkGaussianFilter",
           "tags" : ["filter","gaussian","imaging"],
    "description" : "<h3>Filter itkGaussianFilter</h3>
                     <p>Apply the gaussian filter provided by ITK</p>",
         "inputs" : ["sigma","sigma_array","image"],
         "outputs": ["image"]
}
