{
          "title" : "image xor Filter",
           "kind" : "process",
           "type" : "xorFilter",
           "tags" : ["filter","xor"],
    "description" : "",
         "inputs" : ["lhs","rhs"],
         "outputs": ["image_res"]
}
